name.string | price.real  | antivirus.boolean | NSK.boolean. | NSD.boolean | monitoring.boolean | spyware.boolean  | upgrade.boolean  | comfort.boolean  | Windows.boolean  | Linux.boolean  | effective.real
NortonInternetSecurity | 427.00 | 1 | 1 | 1 | 1 | 0 | 1 | 0.7 | 1 | 0 | 0.6
Norton360 | 641.00 | 1 | 1 | 1 | 0 | 0 | 1 | 0.45 | 1 | 0 | 0.35
HideFolder | 0.00 | 0 | 0 | 1 | 0 | 0 | 1 | 0.78 | 1 | 0 | 0.4
output Firewall Pro | 427.00 | 1 | 1 | 1 | 1 | 1 | 1 | 0.65 | 1 | 0 | 0.58
Kaspersky Internet Securit | 427.00 | 1 | 1 | 1 | 1 | 0 | 1 | 0.85 | 1 | 0 | 0.75
SpyBot | 0.00 | 0 | 0 | 0 | 1 | 1 | 1 | 0.65 | 1 | 0 | 0.85
Provatefirewall | 0.00 | 0 | 1 | 1 | 0 | 0 | 1 | 0.69 | 1 | 0 | 0.64
AVZ | 0.00 | 1 | 0 | 0 | 0 | 0 | 1 | 0.75 | 1 | 0 | 0.35
Hitman Pro | 160.00 | 1 | 1 | 1 | 0 | 0 | 1 | 0.45 | 1 | 0 | 0.48
Ricing PC Doctor | 0.00 | 1 | 1 | 1 | 0 | 0 | 1 | 0.75 | 1 | 0 | 0.78